06--Chapter-5.utf8
…
We need to now bind all of these survey data frames into a single survey data frame.

pokemon_design<- rbind(pokemon_generation1_des, pokemon_generation2_des, pokemon_generation3_des, pokemon_generation4_des, pokemon_generation5_des, pokemon_generation6_des, pokemon_generation7_des, pokemon_generation8_des)

pokemon_design

## # A tibble: 1,015 x 2
##    num   design_mean
##    <chr>       <dbl>
##  1 1            8.09
##  2 2            7.55
##  3 3            5.45
##  4 3M           6.55
##  5 4            6.36
##  6 5            6.45
##  7 6            8.36
##  8 6MX          7.09
##  9 6MY          8.91
## 10 7            7.91
## # ... with 1,005 more rows
…
